
{
  "count": 1636,
  "limit": 20,
  "next": "/recommendation-20/quantityCategory?start=21&limit=20",
  "previous": "",
  "results": [
    {
      "CommonCode": "C81",
      "ConversionFactor": "rad",
      "Description": "",
      "GroupID": 2,
      "GroupNumber": 1,
      "Level/Category": "1",
      "Name": "radian",
      "Quantity": "angle (plane)",
      "Sector": "Space and Time",
      "Status": "",
      "Symbol": "rad"
    },
    {
      "CommonCode": "C25",
      "ConversionFactor": "10⁻³ rad",
      "Description": "",
      "GroupID": 3,
      "GroupNumber": 1,
      "Level/Category": "1S",
      "Name": "milliradian",
      "Quantity": "angle (plane)",
      "Sector": "Space and Time",
      "Status": "",
      "Symbol": "mrad"
    },
    {
      "CommonCode": "B97",
      "ConversionFactor": "10⁻⁶ rad",
      "Description": "",
      "GroupID": 4,
      "GroupNumber": 1,
      "Level/Category": "1S",
      "Name": "microradian",
      "Quantity": "angle (plane)",
      "Sector": "Space and Time",
      "Status": "",
      "Symbol": "µrad"
    },
    {
      "CommonCode": "DD",
      "ConversionFactor": "1,745 329 × 10⁻² rad",
      "Description": "",
      "GroupID": 5,
      "GroupNumber": 1,
      "Level/Category": "1",
      "Name": "degree [unit of angle]",
      "Quantity": "angle (plane)",
      "Sector": "Space and Time",
      "Status": "",
      "Symbol": "°"
    },
    {
      "CommonCode": "D61",
      "ConversionFactor": "2,908 882 × 10⁻⁴ rad",
      "Description": "",
      "GroupID": 6,
      "GroupNumber": 1,
      "Level/Category": "1",
      "Name": "minute [unit of angle]",
      "Quantity": "angle (plane)",
      "Sector": "Space and Time",
      "Status": "",
      "Symbol": "'"
    },
    {
      "CommonCode": "D62",
      "ConversionFactor": "4,848 137 × 10⁻⁶ rad",
      "Description": "",
      "GroupID": 7,
      "GroupNumber": 1,
      "Level/Category": "1",
      "Name": "second [unit of angle]",
      "Quantity": "angle (plane)",
      "Sector": "Space and Time",
      "Status": "",
      "Symbol": "\""
    },
    {
      "CommonCode": "A91",
      "ConversionFactor": "#NAME?",
      "Description": "",
      "GroupID": 8,
      "GroupNumber": 1,
      "Level/Category": "2",
      "Name": "grade",
      "Quantity": "angle (plane)",
      "Sector": "Space and Time",
      "Status": "D",
      "Symbol": ""
    },
    {
      "CommonCode": "A91",
      "ConversionFactor": "1,570 796 × 10⁻² rad",
      "Description": "Synonym: grade",
      "GroupID": 9,
      "GroupNumber": 1,
      "Level/Category": "2",
      "Name": "gon",
      "Quantity": "angle (plane)",
      "Sector": "Space and Time",
      "Status": "",
      "Symbol": "gon"
    },
    {
      "CommonCode": "M43",
      "ConversionFactor": "9,817 477  × 10⁻⁴ rad",
      "Description": "Unit to indicate an angle at military zone, equal to the 6400th part of the full circle of the 360° or 2·p·rad.",
      "GroupID": 10,
      "GroupNumber": 1,
      "Level/Category": "2",
      "Name": "mil",
      "Quantity": "angle (plane)",
      "Sector": "Space and Time",
      "Status": "",
      "Symbol": "mil"
    },
    {
      "CommonCode": "M44",
      "ConversionFactor": "6,283 185 rad",
      "Description": "Unit to identify an angle of the full circle of 360° or 2·p·rad (Refer ISO/TC12 SI Guide).",
      "GroupID": 11,
      "GroupNumber": 1,
      "Level/Category": "2",
      "Name": "revolution",
      "Quantity": "angle (plane)",
      "Sector": "Space and Time",
      "Status": "",
      "Symbol": "rev"
    },
    {
      "CommonCode": "D27",
      "ConversionFactor": "sr",
      "Description": "",
      "GroupID": 12,
      "GroupNumber": 1,
      "Level/Category": "1",
      "Name": "steradian",
      "Quantity": "solid angle",
      "Sector": "Space and Time",
      "Status": "",
      "Symbol": "sr"
    },
    {
      "CommonCode": "H57",
      "ConversionFactor": "2,54 × 10⁻² m/(2 × π × rad)",
      "Description": "",
      "GroupID": 13,
      "GroupNumber": 1,
      "Level/Category": "2",
      "Name": "inch per two pi radiant",
      "Quantity": "solid angle",
      "Sector": "Space and Time",
      "Status": "",
      "Symbol": "in/revolution"
    },
    {
      "CommonCode": "MTR",
      "ConversionFactor": "m",
      "Description": "",
      "GroupID": 14,
      "GroupNumber": 1,
      "Level/Category": "1",
      "Name": "metre",
      "Quantity": "length, breadth, height, thickness, radius, radius of curvature, cartesian coordinates, diameter, length of path, distance",
      "Sector": "Space and Time",
      "Status": "",
      "Symbol": "m"
    },
    {
      "CommonCode": "E96",
      "ConversionFactor": "1,745 329 × 10⁻² rad × s⁻¹",
      "Description": "",
      "GroupID": 15,
      "GroupNumber": 1,
      "Level/Category": "1M",
      "Name": "degree per second",
      "Quantity": "solid angle",
      "Sector": "Space and Time",
      "Status": "",
      "Symbol": "°/s"
    },
    {
      "CommonCode": "H27",
      "ConversionFactor": "1,745 329 × 10⁻² rad/m",
      "Description": "",
      "GroupID": 16,
      "GroupNumber": 1,
      "Level/Category": "2",
      "Name": "degree per metre",
      "Quantity": "solid angle",
      "Sector": "Space and Time",
      "Status": "",
      "Symbol": "°/m"
    },
    {
      "CommonCode": "M55",
      "ConversionFactor": "m/rad",
      "Description": "Unit of the translation factor for implementation from rotation to linear movement.",
      "GroupID": 17,
      "GroupNumber": 1,
      "Level/Category": "1S",
      "Name": "metre per radiant",
      "Quantity": "solid angle",
      "Sector": "Space and Time",
      "Status": "",
      "Symbol": "m/rad"
    },
    {
      "CommonCode": "DMT",
      "ConversionFactor": "10⁻¹ m",
      "Description": "",
      "GroupID": 18,
      "GroupNumber": 1,
      "Level/Category": "1M",
      "Name": "decimetre",
      "Quantity": "length, breadth, height, thickness, radius, radius of curvature, cartesian coordinates, diameter, length of path, distance",
      "Sector": "Space and Time",
      "Status": "",
      "Symbol": "dm"
    },
    {
      "CommonCode": "CMT",
      "ConversionFactor": "10⁻² m",
      "Description": "",
      "GroupID": 19,
      "GroupNumber": 1,
      "Level/Category": "1S",
      "Name": "centimetre",
      "Quantity": "length, breadth, height, thickness, radius, radius of curvature, cartesian coordinates, diameter, length of path, distance",
      "Sector": "Space and Time",
      "Status": "",
      "Symbol": "cm"
    },
    {
      "CommonCode": "4H",
      "ConversionFactor": "10⁻⁶ m",
      "Description": "",
      "GroupID": 20,
      "GroupNumber": 1,
      "Level/Category": "1S",
      "Name": "micrometre (micron)",
      "Quantity": "length, breadth, height, thickness, radius, radius of curvature, cartesian coordinates, diameter, length of path, distance",
      "Sector": "Space and Time",
      "Status": "",
      "Symbol": "µm"
    },
    {
      "CommonCode": "MMT",
      "ConversionFactor": "10⁻³ m",
      "Description": "",
      "GroupID": 21,
      "GroupNumber": 1,
      "Level/Category": "1S",
      "Name": "millimetre",
      "Quantity": "length, breadth, height, thickness, radius, radius of curvature, cartesian coordinates, diameter, length of path, distance",
      "Sector": "Space and Time",
      "Status": "",
      "Symbol": "mm"
    }
  ],
  "start": 1
}